%YAML 1.1
%TAG !u! tag:unity3d.com,2011:
--- !u!1045 &1
EditorBuildSettings:
  m_ObjectHideFlags: 0
  serializedVersion: 2
  m_Scenes:
  - enabled: 1
    path: Assets/Scenes/Menu.unity
    guid: 23cc71d5f23678a4b9bd048cf97220cc
  - enabled: 1
    path: Assets/Scenes/Main.unity
    guid: 99c9720ab356a0642a771bea13969a05
  - enabled: 0
    path: Assets/Scenes/PlaneControlsTest.unity
    guid: 27e4092604541a849afd07566500a2a1
  m_configObjects:
    UnityEditor.XR.ARCore.ARCoreSettings: {fileID: 11400000, guid: 3ac6e16a7f5a1964fb30bfa9180ead09,
      type: 2}
    UnityEditor.XR.ARKit.ARKitSettings: {fileID: 11400000, guid: e29945b2a9a273b42b93f95f701704d7,
      type: 2}
    com.unity.xr.management.loader_settings: {fileID: 11400000, guid: 8ea417756bb8f5d4e8fab2e4fcf84758,
      type: 2}
